…
### Recorte do banco de dados, selecionar somente a área de eucalipto.

``` r
geo_fco2 %>% 
  filter(tratamento == "EU")
#> # A tibble: 102 × 11
#>    tratamento    id     x     y  fco2    ts    us    mo   p_h p_resina     k
#>    <chr>      <dbl> <dbl> <dbl> <dbl> <dbl> <dbl> <dbl> <dbl>    <dbl> <dbl>
#>  1 EU             1     0     0  5.16  24.0 11.7     31   4.4        3   0.8
#>  2 EU             2    20     0  4.53  24.7  6.96    32   3.8        6   1.9
#>  3 EU             3    40     0  5.05  24.4  9.71    39   3.7        6   1.4
#>  4 EU             4    60     0  5.30  24.6  6.73    38   3.9        5   0.9
#>  5 EU             5    80     0  6.58  24.5  9.39    29   4          4   0.9
#>  6 EU             6   100     0  5.12  24.5  8.49    31   4          5   0.6
#>  7 EU             7    10    10 10.4   25.2 10.2     27   3.7        5   1.1
#>  8 EU             8    15    10  5.04  24.9  9.43    29   3.9        4   0.8
#>  9 EU             9    20    10  5.27  25.0  5.21    22   3.8        4   0.7
#> 10 EU            10    25    10  4.77  24.6  9.36    24   3.8        4   0.7
#> # ℹ 92 more rows
```
…
